{"prompt": "What is the difference between supervised and unsupervised learning?", "referenceResponse": "\n\nSupervised learning is a type of machine learning where the algorithm is trained on labeled data, meaning that the correct output is already known for a given input. The goal of supervised learning is to learn a mapping between inputs and outputs, so that the algorithm can make predictions on new, unseen data.\n\nUnsupervised learning, on the other hand, is a type of machine learning where the algorithm is trained on unlabeled data, meaning that there is no correct output known for a given input. The goal of unsupervised learning is to discover patterns or structure in the data, such as clusters, dimensions, or anomalies, without prior knowledge of the expected output.\n\nHere are some key differences between supervised and unsupervised learning:\n\n1. Labeled data: Supervised learning requires labeled data, while unsupervised learning does not.\n2. Learning goal: The goal of supervised learning is to learn a mapping between inputs and outputs, while the goal of unsupervised learning is to discover patterns or structure in the data.\n3. Training process: Supervised learning involves training the algorithm on labeled data, while unsupervised learning involves discovering patterns or structure in the data without prior knowledge of the expected output.\n4. Output: Supervised learning produces a predicted output for a given input, while unsupervised learning produces a summary or representation of the input data.\n5. Applications: Supervised learning is commonly used in applications such as image classification, speech recognition, and sentiment analysis, while unsupervised learning is commonly used in applications such as clustering, dimensionality reduction, and anomaly detection.\n\nIn summary, supervised learning is a type of machine learning that involves training an algorithm on labeled data to learn a mapping between inputs and outputs, while unsupervised learning is a type of machine learning that involves discovering patterns or structure in unlabeled data without prior knowledge of the expected output.", "category": "machine learning"}
{"prompt": "Explain the concept of overfitting in machine learning", "referenceResponse": "and how to avoid it.\n\nOverfitting is a common problem in machine learning where a model is trained too well on the training data and fails to generalize well to new, unseen data. This occurs when a model is too complex and has too many parameters relative to the amount of training data available. As a result, the model becomes overly specialized to the training data and is unable to adapt to new data.\n\nTo avoid overfitting, there are several techniques that can be used:\n\n1. Regularization: This involves adding a penalty term to the loss function to discourage large weights. L1 and L2 regularization are common techniques used to reduce the magnitude of model weights and prevent overfitting.\n2. Early Stopping: This involves monitoring the validation loss during training and stopping the training process before the model overfits the data.\n3. Data Augmentation: This involves generating additional training data by applying random transformations to the existing data. This can help to reduce overfitting by providing the model with a larger, more diverse training set.\n4. Ensemble Methods: This involves training multiple models on the same data and combining their predictions. Ensemble methods such as bagging and boosting can help to reduce overfitting by averaging the predictions of multiple models.\n5. Cross-Validation: This involves splitting the data into multiple folds and training the model on one fold while evaluating its performance on the remaining folds. This can help to estimate the model's generalization performance and avoid overfitting.\n6. Selecting appropriate model complexity: This involves selecting a model that is complex enough to fit the training data but not so complex that it overfits.\n7. Batch Normalization: This technique normalizes the input data for each mini-batch, which can help to reduce overfitting by preventing the gradients from exploding or vanishing.\n8. Dropout: This technique randomly sets a fraction of the model's neurons to zero during training, which can help to prevent overfitting by making the model less reliant on any single neuron.\n9. Early Stopping with Patience: This technique is similar to early stopping, but it also takes into account the number of epochs that the model has been trained for. The model is only stopped when the validation loss has not improved for a certain number of epochs.\n10. Learning Rate", "category": "machine learning"}
{"prompt": "Describe the purpose of a neural network", "referenceResponse": "and how it works.\n\nA neural network is a machine learning model inspired by the structure and function of the human brain. It consists of layers of interconnected nodes or neurons that process and transmit information. The purpose of a neural network is to learn patterns and relationships in data and make predictions or decisions based on those patterns.\n\nHere's a high-level overview of how a neural network works:\n\n1. Data Input: The neural network is presented with a set of input data, such as images, text, or audio.\n2. Forward Propagation: The input data is fed through the network, layer by layer, with each layer processing the data and passing it on to the next layer.\n3. Activation Functions: Each node in the network applies an activation function to the data it receives, which determines the output of that node. Common activation functions include sigmoid, tanh, and ReLU (Rectified Linear Unit).\n4. Weight Updates: The output of each node is compared to the expected output, and the difference between the two (the \"error\") is used to adjust the weights of the connections between nodes. This process is called \"backpropagation.\"\n5. Backpropagation: The error is propagated backwards through the network, layer by layer, to update the weights of the connections between nodes. This process is repeated for each layer in the network.\n6. Optimization: The weights of the connections between nodes are adjusted to minimize the error between the network's predictions and the true output. This process is typically done using an optimization algorithm such as stochastic gradient descent (SGD).\n7. Training: The network is trained on a large dataset of input-output pairs until it can make accurate predictions on new, unseen data.\n8. Deployment: Once the network is trained, it can be deployed in a variety of applications, such as image recognition, natural language processing, or predictive modeling.\n\nOverall, the purpose of a neural network is to learn complex patterns in data and make accurate predictions or decisions based on those patterns. It works by processing input data through multiple layers of nodes, adjusting the weights of connections between nodes based on error, and optimizing the network's performance on a large dataset.", "category": "machine learning"}
{"prompt": "What is the difference between a feature and a label?", "referenceResponse": "\n\nIn machine learning, a feature is a characteristic or attribute of a data point that can be used to predict an outcome or class label. A label, on the other hand, is the predicted outcome or class that is assigned to a data point based on its features.\n\nFor example, if we were working with a dataset of images of dogs and cats, the features might include the size of the animal, the color of its fur, and the shape of its ears. The label would be the class or category of the animal (e.g. dog or cat).\n\nHere are some key differences between features and labels:\n\n1. Purpose: Features are used to describe the data, while labels are used to predict the outcome or class of the data.\n2. Type of data: Features are typically numerical or categorical data, while labels are categorical data.\n3. Number of labels: In a classification problem, there is only one label per data point, while there can be multiple features.\n4. Relationship: Features are used to predict the labels, and the labels are used to evaluate the performance of the model.\n5. Importance: Features are more important than labels, as they provide the information that is used to make predictions.\n\nIt's important to note that the terms \"feature\" and \"label\" are often used interchangeably, but they have distinct meanings in the context of machine learning. Understanding the difference between these two concepts is essential for building accurate and effective machine learning models.", "category": "machine learning"}
{"prompt": "Explain the process of data preprocessing in machine learning", "referenceResponse": ".\n\nData preprocessing is a crucial step in the machine learning pipeline that involves cleaning, transforming, and preparing the data to be used for training and testing the machine learning models. The goal of data preprocessing is to ensure that the data is in a suitable format for the machine learning algorithm to learn from it and make accurate predictions.\n\nHere are the steps involved in the data preprocessing process:\n\n1. Data Collection: The first step in data preprocessing is to collect the data from various sources. This data may be in the form of text, images, audio, or numerical values.\n2. Data Cleaning: Once the data is collected, it needs to be cleaned to remove any inconsistencies, errors, or missing values. This step is crucial in ensuring that the data is accurate and reliable.\n3. Data Transformation: After cleaning the data, it may need to be transformed to meet the requirements of the machine learning algorithm. This may involve scaling, normalization, or feature extraction.\n4. Feature Selection: Not all the features in the data may be relevant for the machine learning algorithm. Therefore, feature selection is done to select the most relevant features that can improve the accuracy of the model.\n5. Data Split: The data is then split into training and testing sets to evaluate the performance of the machine learning model.\n6. Handling Missing Values: Missing values can be handled by either imputing the missing values or removing them from the dataset.\n7. Handling Outliers: Outliers can be handled by either removing them or transforming them to bring them closer to the other data points.\n8. Handling Imbalanced Datasets: If the dataset is imbalanced, where one class has a significantly larger number of instances than the other classes, it can be handled by either oversampling the minority class or undersampling the majority class.\n9. Dimensionality Reduction: If the dataset is high-dimensional, it may be necessary to reduce the dimensionality of the data to improve the performance of the machine learning algorithm.\n10. Feature Engineering: Finally, feature engineering involves creating new features from existing ones to improve the performance of the machine learning algorithm.\n\nIn summary, data preprocessing is a crucial step in the machine learning pipeline that involves cleaning, transforming, and preparing the data to be used for training", "category": "machine learning"}